{
  "TestPriceGet": [
    {
      "TestID": 1,
      "TestName": "Tes yang pertama",
      "Price": 100000,
      "Discount": 10000,
      "Payable": 90000
    },
    {
      "TestID": 2,
      "TestName": "Tes yang kedua",
      "Price": 150000,
      "Discount": 15000,
      "Payable": 135000
    },
    {
      "TestID": 3,
      "TestName": "Tes yang ketiga",
      "Price": 200000,
      "Discount": 20000,
      "Payable": 180000
    },
    {
      "TestID": 4,
      "TestName": "Tes yang keempat",
      "Price": 250000,
      "Discount": 25000,
      "Payable": 225000
    }
  ]
}
